Data Wrangling & Exploration with the Tidyverse in R
…
---

# Selecting variables

Very often we do not need all the variables in a dataset for our analyses. We can create a selection of columns/variables with the `dplyr` verb `select()`.

```r
titanic %>% 
  select(passenger_id, sex, age, ticket_class, survived)
```

```
## # A tibble: 891 x 5
##    passenger_id sex      age ticket_class survived
##           <dbl> <chr>  <dbl>        <dbl>    <dbl>
##  1            1 male      22            3        0
##  2            2 female    38            1        1
##  3            3 female    26            3        1
##  4            4 female    35            1        1
##  5            5 male      35            3        0
##  6            6 male      NA            3        0
##  7            7 male      54            1        0
##  8            8 male       2            3        0
##  9            9 female    27            3        1
## 10           10 female    14            2        1
## # ... with 881 more rows
```

---

# Select & rename

You can also combine the steps of selecting and renaming variables.

```r
titanic %>% 
  select(id = passenger_id, survivor = survived, sex, age)
```

```
## # A tibble: 891 x 4
##       id survivor sex      age
##    <dbl>    <dbl> <chr>  <dbl>
##  1     1        0 male      22
##  2     2        1 female    38
##  3     3        1 female    26
##  4     4        1 female    35
##  5     5        0 male      35
##  6     6        0 male      NA
##  7     7        0 male      54
##  8     8        0 male       2
##  9     9        1 female    27
## 10    10        1 female    14
## # ... with 881 more rows
```

---

# Selecting a range of variables

```r
titanic %>% 
  select(name:age)
```

```
## # A tibble: 891 x 3
##    name                                                sex      age
##    <chr>                                               <chr>  <dbl>
##  1 Braund, Mr. Owen Harris                             male      22
##  2 Cumings, Mrs. John Bradley (Florence Briggs Thayer) female    38
##  3 Heikkinen, Miss. Laina                              female    26
##  4 Futrelle, Mrs. Jacques Heath (Lily May Peel)        female    35
##  5 Allen, Mr. William Henry                            male      35
##  6 Moran, Mr. James                                    male      NA
##  7 McCarthy, Mr. Timothy J                             male      54
##  8 Palsson, Master. Gosta Leonard                      male       2
##  9 Johnson, Mrs. Oscar W (Elisabeth Vilhelmina Berg)   female    27
## 10 Nasser, Mrs. Nicholas (Adele Achem)                 female    14
## # ... with 881 more rows
```

---

# Unselecting variables

```r
titanic %>% 
  select(-survived)
```

```
## # A tibble: 891 x 11
##    passenger_id ticket_class name  sex     age nr_of_siblings_~
##           <dbl>        <dbl> <chr> <chr> <dbl>            <dbl>
##  1            1            3 Brau~ male     22                1
##  2            2            1 Cumi~ fema~    38                1
##  3            3            3 Heik~ fema~    26                0
##  4            4            1 Futr~ fema~    35                1
##  5            5            3 Alle~ male     35                0
##  6            6            3 Mora~ male     NA                0
##  7            7            1 McCa~ male     54                0
##  8            8            3 Pals~ male      2                3
##  9            9            3 John~ fema~    27                0
## 10           10            2 Nass~ fema~    14                1
## # ... with 881 more rows, and 5 more variables:
## #   nr_of_parents_children_aboard <dbl>, ticket_number <chr>, fare <dbl>,
## #   cabin_nr <chr>, port_of_embarkation <chr>
```

---

# Unselecting a range of variables

```r
titanic %>% 
  select(-(name:port_of_embarkation))
```

```
## # A tibble: 891 x 3
##    passenger_id survived ticket_class
##           <dbl>    <dbl>        <dbl>
##  1            1        0            3
##  2            2        1            1
##  3            3        1            3
##  4            4        1            1
##  5            5        0            3
##  6            6        0            3
##  7            7        0            1
##  8            8        0            3
##  9            9        1            3
## 10           10        1            2
## # ... with 881 more rows
```
…
---

# `dplyr::filter` - one condition

```r
titanic %>% 
  filter(sex == "male")
```

```
## # A tibble: 577 x 12
##    passenger_id survived ticket_class name  sex     age nr_of_siblings_~
##           <dbl>    <dbl>        <dbl> <chr> <chr> <dbl>            <dbl>
##  1            1        0            3 Brau~ male     22                1
##  2            5        0            3 Alle~ male     35                0
##  3            6        0            3 Mora~ male     NA                0
##  4            7        0            1 McCa~ male     54                0
##  5            8        0            3 Pals~ male      2                3
##  6           13        0            3 Saun~ male     20                0
##  7           14        0            3 Ande~ male     39                1
##  8           17        0            3 Rice~ male      2                4
##  9           18        1            2 Will~ male     NA                0
## 10           21        0            2 Fynn~ male     35                0
## # ... with 567 more rows, and 5 more variables:
## #   nr_of_parents_children_aboard <dbl>, ticket_number <chr>, fare <dbl>,
## #   cabin_nr <chr>, port_of_embarkation <chr>
```

---

# `dplyr::filter` - multiple conditions

```r
titanic %>% 
  filter(sex == "male", survived == 1, age >= 18)
```

```
## # A tibble: 70 x 12
##    passenger_id survived ticket_class name  sex     age nr_of_siblings_~
##           <dbl>    <dbl>        <dbl> <chr> <chr> <dbl>            <dbl>
##  1           22        1            2 Bees~ male     34                0
##  2           24        1            1 Slop~ male     28                0
##  3           75        1            3 Bing~ male     32                0
##  4           82        1            3 Shee~ male     29                0
##  5           98        1            1 Gree~ male     23                0
##  6          128        1            3 Mads~ male     24                0
##  7          147        1            3 "And~ male     27                0
##  8          188        1            1 "Rom~ male     45                0
##  9          205        1            3 "Coh~ male     18                0
## 10          208        1            3 Albi~ male     26                0
## # ... with 60 more rows, and 5 more variables:
## #   nr_of_parents_children_aboard <dbl>, ticket_number <chr>, fare <dbl>,
## #   cabin_nr <chr>, port_of_embarkation <chr>
```
…
However, in some cases you might want to have newly created columns in a different place (e.g., closer to the variables they are based on or related to) or want to move one or more columns for some other reason. In some of these cases it might be inconvenient to do this via `select()`.  

Luckily, someome on [*Stackoverflow*](https://stackoverflow.com/questions/52096919/move-a-column-conveniently/52096938#52096938) has created a nice function for this situation. You can find the function definition in the `move.R` file in the *scripts* folder.   

---

# Move function

```r
titanic %>% 
  move(cols = port_of_embarkation, ref = passenger_id, side = "after")
```

```
## # A tibble: 891 x 13
##    passenger_id port_of_embarka~ survived ticket_class name  sex     age
##           <dbl> <chr>               <dbl>        <dbl> <chr> <chr> <dbl>
##  1            1 S                       0            3 Brau~ male     22
##  2            2 C                       1            1 Cumi~ fema~    38
##  3            3 S                       1            3 Heik~ fema~    26
##  4            4 S                       1            1 Futr~ fema~    35
##  5            5 S                       0            3 Alle~ male     35
##  6            6 Q                       0            3 Mora~ male     NA
##  7            7 S                       0            1 McCa~ male     54
##  8            8 S                       0            3 Pals~ male      2
##  9            9 S                       1            3 John~ fema~    27
## 10           10 C                       1            2 Nass~ fema~    14
## # ... with 881 more rows, and 6 more variables:
## #   nr_of_siblings_spouses_aboard <dbl>,
## #   nr_of_parents_children_aboard <dbl>, ticket_number <chr>, fare <dbl>,
## #   cabin_nr <chr>, nr_of_relatives_aboard <dbl>
```
…
# Rearrange the order of rows

To rearrange the order of rows/observations in your dataset, you can use the `arrange()` function from `dplyr`. You can arrange your observations by one or more variables and in ascending or descending order.

---

# Arrange by one variable - ascending

```r
titanic %>% 
  arrange(age)
```

```
## # A tibble: 891 x 13
##    passenger_id survived ticket_class name  sex     age nr_of_siblings_~
##           <dbl>    <dbl>        <dbl> <chr> <chr> <dbl>            <dbl>
##  1          804        1            3 Thom~ male   0.42                0
##  2          756        1            2 Hama~ male   0.67                1
##  3          470        1            3 Bacl~ fema~  0.75                2
##  4          645        1            3 Bacl~ fema~  0.75                2
##  5           79        1            2 Cald~ male   0.83                0
##  6          832        1            2 Rich~ male   0.83                1
##  7          306        1            1 Alli~ male   0.92                1
##  8          165        0            3 Panu~ male   1                   4
##  9          173        1            3 John~ fema~  1                   1
## 10          184        1            2 Beck~ male   1                   2
## # ... with 881 more rows, and 6 more variables:
## #   nr_of_parents_children_aboard <dbl>, ticket_number <chr>, fare <dbl>,
## #   cabin_nr <chr>, port_of_embarkation <chr>,
## #   nr_of_relatives_aboard <dbl>
```
…
---

# Arrange by multiple variables

```r
titanic %>% 
  arrange(ticket_class, desc(fare)) %>% 
  select(passenger_id, sex, age, ticket_class, fare)
```

```
## # A tibble: 891 x 5
##    passenger_id sex      age ticket_class  fare
##           <dbl> <chr>  <dbl>        <dbl> <dbl>
##  1          259 female    35            1  512.
##  2          680 male      36            1  512.
##  3          738 male      35            1  512.
##  4           28 male      19            1  263 
##  5           89 female    23            1  263 
##  6          342 female    24            1  263 
##  7          439 male      64            1  263 
##  8          312 female    18            1  262.
##  9          743 female    21            1  262.
## 10          119 male      24            1  248.
## # ... with 881 more rows
```
…
