Data Wrangling & Exploration with the Tidyverse in R
…
Note the column specifications. `readr` 'guesses' them based on the first 1000 observations (we will come back to this later).

---

# A readr example: `read_csv()`

```r
titanic
```

```
## # A tibble: 891 x 12
##    PassengerId Survived Pclass Name  Sex     Age SibSp Parch Ticket  Fare
##          <dbl>    <dbl>  <dbl> <chr> <chr> <dbl> <dbl> <dbl> <chr>  <dbl>
##  1           1        0      3 Brau~ male     22     1     0 A/5 2~  7.25
##  2           2        1      1 Cumi~ fema~    38     1     0 PC 17~ 71.3 
##  3           3        1      3 Heik~ fema~    26     0     0 STON/~  7.92
##  4           4        1      1 Futr~ fema~    35     1     0 113803 53.1 
##  5           5        0      3 Alle~ male     35     0     0 373450  8.05
##  6           6        0      3 Mora~ male     NA     0     0 330877  8.46
##  7           7        0      1 McCa~ male     54     0     0 17463  51.9 
##  8           8        0      3 Pals~ male      2     3     1 349909 21.1 
##  9           9        1      3 John~ fema~    27     0     2 347742 11.1 
## 10          10        1      2 Nass~ fema~    14     1     0 237736 30.1 
## # ... with 881 more rows, and 2 more variables: Cabin <chr>,
## #   Embarked <chr>
```
…
No output ☹️

---

# A readxl example: `read_excel()`

```r
unicorns
```

```
## # A tibble: 42 x 3
##    countryname  year   pop
##    <chr>       <dbl> <dbl>
##  1 Austria      1670    85
##  2 Austria      1671    83
##  3 Austria      1674    75
##  4 Austria      1675    82
##  5 Austria      1676    79
##  6 Austria      1677    70
##  7 Austria      1678    81
##  8 Austria      1680    80
##  9 France       1673    70
## 10 France       1674    79
## # ... with 32 more rows
```
…
Note: The [`gesis` package](https://github.com/expersso/gesis) allows direct access to the *GESIS* Data Catalogue (DBK) in `R`, given that you have a DBK account.

---

# A haven example: `read_stata()` 

```r
gesis_panel
```

```
## # A tibble: 1,222 x 1,192
##    z000001z z000002z z000003z z000005z a11c019a a11c020a a11c021a a11c022a
##       <dbl> <chr>    <chr>    <chr>    <dbl+lb> <dbl+lb> <dbl+lb> <dbl+lb>
##  1   1.98e8 ZA5666   1-0-0 2~ 10.4232~ 1 [Sehr~ 1 [Sehr~ 1 [Sehr~ 2 [Stim~
##  2   4.36e8 ZA5666   1-0-0 2~ 10.4232~ 1 [Sehr~ 1 [Sehr~ 1 [Sehr~ 2 [Stim~
##  3   8.57e8 ZA5666   1-0-0 2~ 10.4232~ 2 [Eher~ 2 [Eher~ 2 [Eher~ 2 [Stim~
##  4   1.17e8 ZA5666   1-0-0 2~ 10.4232~ 1 [Sehr~ 1 [Sehr~ 1 [Sehr~ 2 [Stim~
##  5   9.43e8 ZA5666   1-0-0 2~ 10.4232~ 1 [Sehr~ 1 [Sehr~ 4 [Eher~ 2 [Stim~
##  6   2.66e8 ZA5666   1-0-0 2~ 10.4232~ 1 [Sehr~ 1 [Sehr~ 1 [Sehr~ 2 [Stim~
##  7   2.76e8 ZA5666   1-0-0 2~ 10.4232~ 1 [Sehr~ 1 [Sehr~ 3 [Wede~ 2 [Stim~
##  8   6.78e8 ZA5666   1-0-0 2~ 10.4232~ 1 [Sehr~ 2 [Eher~ 1 [Sehr~ 3 [Stim~
##  9   4.64e8 ZA5666   1-0-0 2~ 10.4232~ 2 [Eher~ 2 [Eher~ 1 [Sehr~ 3 [Stim~
## 10   4.79e8 ZA5666   1-0-0 2~ 10.4232~ 1 [Sehr~ 1 [Sehr~ 2 [Eher~ 2 [Stim~
## # ... with 1,212 more rows, and 1,184 more variables: a11c023a <dbl+lbl>,
## #   a11c024a <dbl+lbl>, a11c025a <dbl+lbl>, a11c026a <dbl+lbl>,
## #   a11c027a <dbl+lbl>, a11c028a <dbl+lbl>, a11c029a <dbl+lbl>,
## #   a11c030a <dbl+lbl>, a11c031a <dbl+lbl>, a11c032a <dbl+lbl>,
## #   a11c033a <dbl+lbl>, a11c034a <dbl+lbl>, a11c035a <dbl+lbl>,
## #   a11c036a <dbl+lbl>, a11c037a <dbl+lbl>, a11c038a <dbl+lbl>,
## #   a11c039a <dbl+lbl>, a11c040a <dbl+lbl>, a11c041a <dbl+lbl>,
## #   a11c042a <dbl+lbl>, a11c043a <dbl+lbl>, a11c044a <dbl+lbl>,
## #   a11c045a <dbl+lbl>, a11c046a <dbl+lbl>, a11c047a <dbl+lbl>,
…
---

# While loading the data in `read_csv`

```r
titanic
```

```
## # A tibble: 891 x 12
##    PassengerId Survived Pclass Name  Sex     Age SibSp Parch Ticket  Fare
##          <dbl>    <dbl>  <dbl> <chr> <chr> <dbl> <dbl> <dbl> <chr>  <dbl>
##  1           1        0      3 Brau~ male     22     1     0 A/5 2~  7.25
##  2           2        1      1 Cumi~ fema~    38     1     0 PC 17~ 71.3 
##  3           3        1      3 Heik~ fema~    26     0     0 STON/~  7.92
##  4           4        1      1 Futr~ fema~    35     1     0 113803 53.1 
##  5           5        0      3 Alle~ male     35     0     0 373450  8.05
##  6           6        0      3 Mora~ male     NA     0     0 330877  8.46
##  7           7        0      1 McCa~ male     54     0     0 17463  51.9 
##  8           8        0      3 Pals~ male      2     3     1 349909 21.1 
##  9           9        1      3 John~ fema~    27     0     2 347742 11.1 
## 10          10        1      2 Nass~ fema~    14     1     0 237736 30.1 
## # ... with 881 more rows, and 2 more variables: Cabin <chr>,
## #   Embarked <chr>
```
…
---

# While loading the data in `read_csv`

```r
titanic
```

```
## # A tibble: 891 x 12
##    PassengerId Survived Pclass Name  Sex     Age SibSp Parch Ticket  Fare
##          <dbl>    <dbl>  <dbl> <chr> <fct> <dbl> <dbl> <dbl> <chr>  <dbl>
##  1           1        0      3 Brau~ male     22     1     0 A/5 2~  7.25
##  2           2        1      1 Cumi~ fema~    38     1     0 PC 17~ 71.3 
##  3           3        1      3 Heik~ fema~    26     0     0 STON/~  7.92
##  4           4        1      1 Futr~ fema~    35     1     0 113803 53.1 
##  5           5        0      3 Alle~ male     35     0     0 373450  8.05
##  6           6        0      3 Mora~ male     NA     0     0 330877  8.46
##  7           7        0      1 McCa~ male     54     0     0 17463  51.9 
##  8           8        0      3 Pals~ male      2     3     1 349909 21.1 
##  9           9        1      3 John~ fema~    27     0     2 347742 11.1 
## 10          10        1      2 Nass~ fema~    14     1     0 237736 30.1 
## # ... with 881 more rows, and 2 more variables: Cabin <chr>,
## #   Embarked <chr>
```
…
