Data Wrangling & Exploration with the Tidyverse in R
…
Luckily, there are many helper functions (you can get a complete list of those via ` ?tidyselect::select_helpers`) that can be used within the `dplyr` `select()` function as well as scoped variants of `select` that can make your life as a professional data wrangler a lot easier. 

We will explore some of those options in the following (for a more exhaustive overview, you can have a look at the [tutorial by Suzan Baert](https://suzan.rbind.io/2018/01/dplyr-tutorial-1/)).

---

# Select variables based on parts of their names

```r
titanic %>% 
  select(starts_with("nr"))
```

```
## # A tibble: 891 x 2
##    nr_of_siblings_spouses_aboard nr_of_parents_children_aboard
##                            <dbl>                         <dbl>
##  1                             1                             0
##  2                             1                             0
##  3                             0                             0
##  4                             1                             0
##  5                             0                             0
##  6                             0                             0
##  7                             0                             0
##  8                             3                             1
##  9                             0                             2
## 10                             1                             0
## # ... with 881 more rows
```

---

# Select variables based on parts of their names

```r
titanic %>% 
  select(ends_with("aboard"))
```

```
## # A tibble: 891 x 2
##    nr_of_siblings_spouses_aboard nr_of_parents_children_aboard
##                            <dbl>                         <dbl>
##  1                             1                             0
##  2                             1                             0
##  3                             0                             0
##  4                             1                             0
##  5                             0                             0
##  6                             0                             0
##  7                             0                             0
##  8                             3                             1
##  9                             0                             2
## 10                             1                             0
## # ... with 881 more rows
```

---

# Select variables based on their type

```r
titanic %>% 
  select_if(is.numeric)
```

```
## # A tibble: 891 x 7
##    passenger_id survived ticket_class   age nr_of_siblings_~
##           <dbl>    <dbl>        <dbl> <dbl>            <dbl>
##  1            1        0            3    22                1
##  2            2        1            1    38                1
##  3            3        1            3    26                0
##  4            4        1            1    35                1
##  5            5        0            3    35                0
##  6            6        0            3    NA                0
##  7            7        0            1    54                0
##  8            8        0            3     2                3
##  9            9        1            3    27                0
## 10           10        1            2    14                1
## # ... with 881 more rows, and 2 more variables:
## #   nr_of_parents_children_aboard <dbl>, fare <dbl>
```
…
Note that the range specified in `between()` is inclusive.

---

# Filter rows based on exact matches in a character variable

```r
titanic %>% 
* filter(port_of_embarkation %in% c("Southampton", "Queenstown")) %>%
  select(passenger_id, port_of_embarkation)
```

```
## # A tibble: 721 x 2
##    passenger_id port_of_embarkation
##           <dbl> <chr>              
##  1            1 Southampton        
##  2            3 Southampton        
##  3            4 Southampton        
##  4            5 Southampton        
##  5            6 Queenstown         
##  6            7 Southampton        
##  7            8 Southampton        
##  8            9 Southampton        
##  9           11 Southampton        
## 10           12 Southampton        
## # ... with 711 more rows
```
…
```r
titanic %>% 
  filter_all(all_vars(!is.na(.)))
```

However, if you only want to keep complete cases, it is easier to use the `drop_na()` function from `tidyr`.

```r
titanic %>% 
  drop_na()
```

```
## # A tibble: 183 x 12
##    passenger_id survived ticket_class name  sex     age nr_of_siblings_~
##           <dbl>    <dbl>        <dbl> <chr> <chr> <dbl>            <dbl>
##  1            2        1            1 Cumi~ fema~    38                1
##  2            4        1            1 Futr~ fema~    35                1
##  3            7        0            1 McCa~ male     54                0
##  4           11        1            3 Sand~ fema~     4                1
##  5           12        1            1 Bonn~ fema~    58                0
##  6           22        1            2 Bees~ male     34                0
##  7           24        1            1 Slop~ male     28                0
##  8           28        0            1 Fort~ male     19                3
##  9           53        1            1 Harp~ fema~    49                1
## 10           55        0            1 Ostb~ male     65                0
## # ... with 173 more rows, and 5 more variables:
## #   nr_of_parents_children_aboard <dbl>, ticket_number <chr>, fare <dbl>,
## #   cabin_nr <chr>, port_of_embarkation <chr>
```

---

# Filter a selection of variables

```r
titanic %>% 
  filter_at(vars(
    nr_of_parents_children_aboard, nr_of_siblings_spouses_aboard),
    any_vars(. > 0)) 
```

```
## # A tibble: 354 x 12
##    passenger_id survived ticket_class name  sex     age nr_of_siblings_~
##           <dbl>    <dbl>        <dbl> <chr> <chr> <dbl>            <dbl>
##  1            1        0            3 Brau~ male     22                1
##  2            2        1            1 Cumi~ fema~    38                1
##  3            4        1            1 Futr~ fema~    35                1
##  4            8        0            3 Pals~ male      2                3
##  5            9        1            3 John~ fema~    27                0
##  6           10        1            2 Nass~ fema~    14                1
##  7           11        1            3 Sand~ fema~     4                1
##  8           14        0            3 Ande~ male     39                1
##  9           17        0            3 Rice~ male      2                4
## 10           19        0            3 Vand~ fema~    31                1
## # ... with 344 more rows, and 5 more variables:
## #   nr_of_parents_children_aboard <dbl>, ticket_number <chr>, fare <dbl>,
## #   cabin_nr <chr>, port_of_embarkation <chr>
```

---

# Conditional filtering

Only keep cases without missing values for the numeric variables

```r
titanic %>% 
  filter_if(is.numeric, all_vars(!is.na(.)))
```

```
## # A tibble: 714 x 12
##    passenger_id survived ticket_class name  sex     age nr_of_siblings_~
##           <dbl>    <dbl>        <dbl> <chr> <chr> <dbl>            <dbl>
##  1            1        0            3 Brau~ male     22                1
##  2            2        1            1 Cumi~ fema~    38                1
##  3            3        1            3 Heik~ fema~    26                0
##  4            4        1            1 Futr~ fema~    35                1
##  5            5        0            3 Alle~ male     35                0
##  6            7        0            1 McCa~ male     54                0
##  7            8        0            3 Pals~ male      2                3
##  8            9        1            3 John~ fema~    27                0
##  9           10        1            2 Nass~ fema~    14                1
## 10           11        1            3 Sand~ fema~     4                1
## # ... with 704 more rows, and 5 more variables:
## #   nr_of_parents_children_aboard <dbl>, ticket_number <chr>, fare <dbl>,
## #   cabin_nr <chr>, port_of_embarkation <chr>
```
…
---

# Mutate all variables of one type

Round all numeric variables to a certain number of decimal places

```r
titanic %>% 
* mutate_if(is.numeric, round, 2) %>%
  select(passenger_id, ticket_class, fare)
```

```
## # A tibble: 891 x 3
##    passenger_id ticket_class  fare
##           <dbl>        <dbl> <dbl>
##  1            1            3  7.25
##  2            2            1 71.3 
##  3            3            3  7.92
##  4            4            1 53.1 
##  5            5            3  8.05
##  6            6            3  8.46
##  7            7            1 51.9 
##  8            8            3 21.1 
##  9            9            3 11.1 
## 10           10            2 30.1 
## # ... with 881 more rows
```
…
---

# Change specific columns

```r
titanic %>% 
  filter(is.na(port_of_embarkation) | 
           is.na(cabin_nr)) %>% 
* mutate_at(vars(cabin_nr, port_of_embarkation),
*           list(~replace_na(., "unknown"))) %>%
  select(name, cabin_nr, port_of_embarkation)
```

```
## # A tibble: 689 x 3
##    name                                         cabin_nr port_of_embarkati~
##    <chr>                                        <chr>    <chr>             
##  1 Braund, Mr. Owen Harris                      unknown  Southampton       
##  2 Heikkinen, Miss. Laina                       unknown  Southampton       
##  3 Allen, Mr. William Henry                     unknown  Southampton       
##  4 Moran, Mr. James                             unknown  Queenstown        
##  5 Palsson, Master. Gosta Leonard               unknown  Southampton       
##  6 Johnson, Mrs. Oscar W (Elisabeth Vilhelmina~ unknown  Southampton       
##  7 Nasser, Mrs. Nicholas (Adele Achem)          unknown  Cherbourg         
##  8 Saundercock, Mr. William Henry               unknown  Southampton       
##  9 Andersson, Mr. Anders Johan                  unknown  Southampton       
## 10 Vestrom, Miss. Hulda Amanda Adolfina         unknown  Southampton       
## # ... with 679 more rows
```
…
If you want (or have) to work with regular expressions, you should also check out the [`rebus` package](https://github.com/richierocks/rebus) which allows you to create regular expressions in R in a human-readable way. Another helpful tool is the *RStudio* addin [`RegExplain`](https://www.garrickadenbuie.com/project/regexplain/).  

---

# Extract parts of a string into a new variable

```r
titanic %>% 
* mutate(port_abbrev = str_sub(port_of_embarkation, end = 1)) %>%
  select(port_of_embarkation, port_abbrev)
```

```
## # A tibble: 891 x 2
##    port_of_embarkation port_abbrev
##    <chr>               <chr>      
##  1 Southampton         S          
##  2 Cherbourg           C          
##  3 Southampton         S          
##  4 Southampton         S          
##  5 Southampton         S          
##  6 Queenstown          Q          
##  7 Southampton         S          
##  8 Southampton         S          
##  9 Southampton         S          
## 10 Cherbourg           C          
## # ... with 881 more rows
```

---

# Extract string patterns into new variables

```r
titanic %>% 
* mutate(title = str_extract(name,
*                            pattern = one_or_more(ALNUM) %R% DOT)) %>%
  select(name, title)
```

```
## # A tibble: 891 x 2
##    name                                                title  
##    <chr>                                               <chr>  
##  1 Braund, Mr. Owen Harris                             Mr.    
##  2 Cumings, Mrs. John Bradley (Florence Briggs Thayer) Mrs.   
##  3 Heikkinen, Miss. Laina                              Miss.  
##  4 Futrelle, Mrs. Jacques Heath (Lily May Peel)        Mrs.   
##  5 Allen, Mr. William Henry                            Mr.    
##  6 Moran, Mr. James                                    Mr.    
##  7 McCarthy, Mr. Timothy J                             Mr.    
##  8 Palsson, Master. Gosta Leonard                      Master.
##  9 Johnson, Mrs. Oscar W (Elisabeth Vilhelmina Berg)   Mrs.   
## 10 Nasser, Mrs. Nicholas (Adele Achem)                 Mrs.   
## # ... with 881 more rows
```
…
We use the `rebus` package here to create a regular expression for the pattern matching. Note that we first use the `separate()` function from `tidyr` to split into first and last name.

---

# Example: Split Titanic names into parts

```
## # A tibble: 891 x 4
##    name                           first_name               last_name title 
##    <chr>                          <chr>                    <chr>     <chr> 
##  1 Braund, Mr. Owen Harris        Owen Harris              Braund    Mr.   
##  2 Cumings, Mrs. John Bradley (F~ John Bradley (Florence ~ Cumings   Mrs.  
##  3 Heikkinen, Miss. Laina         Laina                    Heikkinen Miss. 
##  4 Futrelle, Mrs. Jacques Heath ~ Jacques Heath (Lily May~ Futrelle  Mrs.  
##  5 Allen, Mr. William Henry       William Henry            Allen     Mr.   
##  6 Moran, Mr. James               James                    Moran     Mr.   
##  7 McCarthy, Mr. Timothy J        Timothy J                McCarthy  Mr.   
##  8 Palsson, Master. Gosta Leonard Gosta Leonard            Palsson   Maste~
##  9 Johnson, Mrs. Oscar W (Elisab~ Oscar W (Elisabeth Vilh~ Johnson   Mrs.  
## 10 Nasser, Mrs. Nicholas (Adele ~ Nicholas (Adele Achem)   Nasser    Mrs.  
## # ... with 881 more rows
```

---

# Dummy variables

You can combine the `mutate()` function with a simple `ifelse()` statement to create a dummy variable based on a numeric one. For more advanced creation of dummy variables (e.g., for categorical variables) you should check out the [`fastDummies` package](https://github.com/jacobkap/fastDummies).

```r
titanic %>%
* mutate(age_dic = if_else(age > 17, "adult", "child")) %>%
  select(passenger_id, sex, age, age_dic)
```

```
## # A tibble: 891 x 4
##    passenger_id sex      age age_dic
##           <dbl> <chr>  <dbl> <chr>  
##  1            1 male      22 adult  
##  2            2 female    38 adult  
##  3            3 female    26 adult  
##  4            4 female    35 adult  
##  5            5 male      35 adult  
##  6            6 male      NA <NA>   
##  7            7 male      54 adult  
##  8            8 male       2 child  
##  9            9 female    27 adult  
## 10           10 female    14 child  
## # ... with 881 more rows
```
…
# Turn a numeric variable into a factor

```r
titanic %>% 
  mutate(ticket_class = recode_factor(ticket_class,
                                      `1` = "First",
                                      `2` = "Second",
                                      `3` = "Third"))
```

If we wanted to create an ordered factor (= special type of variable), we would have to add the argument `.ordered = TRUE`.

```
## # A tibble: 891 x 12
##    passenger_id survived ticket_class name  sex     age nr_of_siblings_~
##           <dbl>    <dbl> <fct>        <chr> <chr> <dbl>            <dbl>
##  1            1        0 Third        Brau~ male     22                1
##  2            2        1 First        Cumi~ fema~    38                1
##  3            3        1 Third        Heik~ fema~    26                0
##  4            4        1 First        Futr~ fema~    35                1
##  5            5        0 Third        Alle~ male     35                0
##  6            6        0 Third        Mora~ male     NA                0
##  7            7        0 First        McCa~ male     54                0
##  8            8        0 Third        Pals~ male      2                3
##  9            9        1 Third        John~ fema~    27                0
## 10           10        1 Second       Nass~ fema~    14                1
## # ... with 881 more rows, and 5 more variables:
## #   nr_of_parents_children_aboard <dbl>, ticket_number <chr>, fare <dbl>,
## #   cabin_nr <chr>, port_of_embarkation <chr>
```
…
- conditions are evaluated consecutively
- to understand what `TRUE` means here, you can think of `case_when` as an `ifelse()` statement: What happens if the else-condition is true?
- if you define missings for your outcome variable, you have to be explicit about the type of `NA` you need (`NA_character_`, `NA_integer_`, `NA_real_`)
- if you wanted to create an ordered factor, you would need to specify this via the `levels` argument of the `factor()` function (see `?factor`)

---

# Create a categorical variable based on values of another variable

```
## # A tibble: 891 x 4
##    passenger_id sex      age age_cat    
##           <dbl> <chr>  <dbl> <fct>      
##  1            1 male      22 young adult
##  2            2 female    38 adult      
##  3            3 female    26 young adult
##  4            4 female    35 adult      
##  5            5 male      35 adult      
##  6            6 male      NA <NA>       
##  7            7 male      54 adult      
##  8            8 male       2 child      
##  9            9 female    27 young adult
## 10           10 female    14 adolescent 
## # ... with 881 more rows
```
…
