Data Wrangling & Exploration with the Tidyverse in R
…
---

# Selecting variables

Very often we do not need all the variables in a dataset for our analyses. We can create a selection of columns/variables with the `dplyr` verb `select()`.

```r
titanic %>% 
  select(passenger_id, survived, ticket_class, sex, age)
```

```
## # A tibble: 891 x 5
##    passenger_id survived ticket_class sex      age
##           <dbl>    <dbl>        <dbl> <chr>  <dbl>
##  1            1        0            3 male      22
##  2            2        1            1 female    38
##  3            3        1            3 female    26
##  4            4        1            1 female    35
##  5            5        0            3 male      35
##  6            6        0            3 male      NA
##  7            7        0            1 male      54
##  8            8        0            3 male       2
##  9            9        1            3 female    27
## 10           10        1            2 female    14
## # ... with 881 more rows
```
…
---

# dplyr::filter - one condition

```r
titanic %>% 
  filter(sex == "male")
```

```
## # A tibble: 577 x 12
##    passenger_id survived ticket_class name  sex     age nr_of_siblings_~
##           <dbl>    <dbl>        <dbl> <chr> <chr> <dbl>            <dbl>
##  1            1        0            3 Brau~ male     22                1
##  2            5        0            3 Alle~ male     35                0
##  3            6        0            3 Mora~ male     NA                0
##  4            7        0            1 McCa~ male     54                0
##  5            8        0            3 Pals~ male      2                3
##  6           13        0            3 Saun~ male     20                0
##  7           14        0            3 Ande~ male     39                1
##  8           17        0            3 Rice~ male      2                4
##  9           18        1            2 Will~ male     NA                0
## 10           21        0            2 Fynn~ male     35                0
## # ... with 567 more rows, and 5 more variables:
## #   nr_of_parents_children_aboard <dbl>, ticket_number <chr>, fare <dbl>,
## #   cabin_nr <chr>, port_of_embarkation <chr>
```

---

# dplyr::filter - multiple conditions

```r
titanic %>% 
  filter(sex == "male", survived == 1, age >= 18)
```

```
## # A tibble: 70 x 12
##    passenger_id survived ticket_class name  sex     age nr_of_siblings_~
##           <dbl>    <dbl>        <dbl> <chr> <chr> <dbl>            <dbl>
##  1           22        1            2 Bees~ male     34                0
##  2           24        1            1 Slop~ male     28                0
##  3           75        1            3 Bing~ male     32                0
##  4           82        1            3 Shee~ male     29                0
##  5           98        1            1 Gree~ male     23                0
##  6          128        1            3 Mads~ male     24                0
##  7          147        1            3 "And~ male     27                0
##  8          188        1            1 "Rom~ male     45                0
##  9          205        1            3 "Coh~ male     18                0
## 10          208        1            3 Albi~ male     26                0
## # ... with 60 more rows, and 5 more variables:
## #   nr_of_parents_children_aboard <dbl>, ticket_number <chr>, fare <dbl>,
## #   cabin_nr <chr>, port_of_embarkation <chr>
```
…
